…
This object contains all the information that is needed to produce predictions. Which we can produce with [`predict()`](https://rdrr.io/r/stats/predict.html)
.

    predict(orbital_obj, penguins)
    #> # A tibble: 344 × 1
    #>    .pred_class
    #>    <chr>      
    #>  1 Adelie     
    #>  2 Adelie     
    #>  3 Adelie     
    #>  4 Adelie     
    #>  5 Adelie     
    #>  6 Adelie     
    #>  7 Adelie     
    #>  8 Adelie     
    #>  9 Adelie     
    #> 10 Adelie     
    #> # ℹ 334 more rows
…
Notice how we can select both `"class"` and `"prob"`. The predictions now include both hard and soft class predictions.

    predict(orbital_obj_prob, penguins)
    #> # A tibble: 344 × 4
    #>    .pred_class .pred_Adelie .pred_Chinstrap .pred_Gentoo
    #>    <chr>              <dbl>           <dbl>        <dbl>
    #>  1 Adelie             0.989         0.00554      0.00560
    #>  2 Adelie             0.989         0.00554      0.00560
    #>  3 Adelie             0.989         0.00554      0.00560
    #>  4 Adelie             0.709         0.0245       0.267  
    #>  5 Adelie             0.989         0.00554      0.00560
    #>  6 Adelie             0.989         0.00554      0.00560
    #>  7 Adelie             0.989         0.00554      0.00560
    #>  8 Adelie             0.989         0.00554      0.00560
    #>  9 Adelie             0.979         0.00549      0.0158 
    #> 10 Adelie             0.980         0.00559      0.0148 
    #> # ℹ 334 more rows
…
New augment method[](#new-augment-method)

------------------------------------------

The users of tidymodels have found the [`augment()`](https://generics.r-lib.org/reference/augment.html)
 function to be a handy tool. This function performs predictions and returns them alongside the original data set.

This release adds [`augment()`](https://generics.r-lib.org/reference/augment.html)
 support for orbital objects.

    augment(orbital_obj, penguins)
    #> # A tibble: 344 × 8
    #>    .pred_class species island    bill_length_mm bill_depth_mm flipper_length_mm
    #>    <chr>       <fct>   <fct>              <dbl>         <dbl>             <int>
    #>  1 Adelie      Adelie  Torgersen           39.1          18.7               181
    #>  2 Adelie      Adelie  Torgersen           39.5          17.4               186
    #>  3 Adelie      Adelie  Torgersen           40.3          18                 195
    #>  4 Adelie      Adelie  Torgersen           NA            NA                  NA
    #>  5 Adelie      Adelie  Torgersen           36.7          19.3               193
    #>  6 Adelie      Adelie  Torgersen           39.3          20.6               190
    #>  7 Adelie      Adelie  Torgersen           38.9          17.8               181
    #>  8 Adelie      Adelie  Torgersen           39.2          19.6               195
    #>  9 Adelie      Adelie  Torgersen           34.1          18.1               193
    #> 10 Adelie      Adelie  Torgersen           42            20.2               190
    #> # ℹ 334 more rows
    #> # ℹ 2 more variables: body_mass_g <int>, sex <fct>
…
    data(deliveries)
    
    # split into training and testing sets
    set.seed(1)
    delivery_split <- initial_split(deliveries)
    delivery_train <- training(delivery_split)
    delivery_test  <- testing(delivery_split)
    
    # resample the training set using 10-fold cross-validation
    set.seed(1)
    delivery_folds <- vfold_cv(delivery_train)
    
    # print out the training set
    delivery_train
    #> # A tibble: 7,509 × 31
    #>    time_to_delivery  hour day   distance item_01 item_02 item_03 item_04 item_05
    #>               <dbl> <dbl> <fct>    <dbl>   <int>   <int>   <int>   <int>   <int>
    #>  1             21.2  16.1 Tue       3.02       0       0       0       0       0
    #>  2             17.9  12.4 Sun       3.37       0       0       0       0       0
    #>  3             22.4  14.2 Fri       2.59       0       0       0       0       0
    #>  4             30.9  19.1 Sat       2.77       0       0       0       0       0
    #>  5             30.1  16.5 Fri       2.05       0       0       0       1       0
    #>  6             35.3  14.7 Sat       4.57       0       0       2       1       1
    #>  7             13.1  11.5 Sat       2.09       0       0       0       0       0
    #>  8             18.3  13.4 Tue       2.35       0       2       1       0       0
    #>  9             25.2  20.5 Sat       2.43       0       0       0       1       0
    #> 10             30.7  16.7 Fri       2.24       0       0       0       1       0
    #> # ℹ 7,499 more rows
    #> # ℹ 22 more variables: item_06 <int>, item_07 <int>, item_08 <int>,
    #> #   item_09 <int>, item_10 <int>, item_11 <int>, item_12 <int>, item_13 <int>,
    #> #   item_14 <int>, item_15 <int>, item_16 <int>, item_17 <int>, item_18 <int>,
    #> #   item_19 <int>, item_20 <int>, item_21 <int>, item_22 <int>, item_23 <int>,
    #> #   item_24 <int>, item_25 <int>, item_26 <int>, item_27 <int>
…
    library(tidymodels)
    library(bonsai)
    library(plsmod)
    library(corrr)

The `meats` data[](#the-meats-data)

------------------------------------

The modeldata package, loaded automatically with the tidymodels meta-package, includes several example datasets to demonstrate modeling problems. We’ll make use of a dataset called `meats` in this post. Each row is a measurement of a sample of finely chopped meat.

    meats
    #> # A tibble: 215 × 103
    #>    x_001 x_002 x_003 x_004 x_005 x_006 x_007 x_008 x_009 x_010 x_011 x_012 x_013
    #>    <dbl> <dbl> <dbl> <dbl> <dbl> <dbl> <dbl> <dbl> <dbl> <dbl> <dbl> <dbl> <dbl>
    #>  1  2.62  2.62  2.62  2.62  2.62  2.62  2.62  2.62  2.63  2.63  2.63  2.63  2.64
    #>  2  2.83  2.84  2.84  2.85  2.85  2.86  2.86  2.87  2.87  2.88  2.88  2.89  2.90
    #>  3  2.58  2.58  2.59  2.59  2.59  2.59  2.59  2.60  2.60  2.60  2.60  2.61  2.61
    #>  4  2.82  2.82  2.83  2.83  2.83  2.83  2.83  2.84  2.84  2.84  2.84  2.85  2.85
    #>  5  2.79  2.79  2.79  2.79  2.80  2.80  2.80  2.80  2.81  2.81  2.81  2.82  2.82
    #>  6  3.01  3.02  3.02  3.03  3.03  3.04  3.04  3.05  3.06  3.06  3.07  3.08  3.09
    #>  7  2.99  2.99  3.00  3.01  3.01  3.02  3.02  3.03  3.04  3.04  3.05  3.06  3.07
    #>  8  2.53  2.53  2.53  2.53  2.53  2.53  2.53  2.53  2.54  2.54  2.54  2.54  2.54
    #>  9  3.27  3.28  3.29  3.29  3.30  3.31  3.31  3.32  3.33  3.33  3.34  3.35  3.36
    #> 10  3.40  3.41  3.41  3.42  3.43  3.43  3.44  3.45  3.46  3.47  3.48  3.48  3.49
    #> # ℹ 205 more rows
    #> # ℹ 90 more variables: x_014 <dbl>, x_015 <dbl>, x_016 <dbl>, x_017 <dbl>,
    #> #   x_018 <dbl>, x_019 <dbl>, x_020 <dbl>, x_021 <dbl>, x_022 <dbl>,
    #> #   x_023 <dbl>, x_024 <dbl>, x_025 <dbl>, x_026 <dbl>, x_027 <dbl>,
    #> #   x_028 <dbl>, x_029 <dbl>, x_030 <dbl>, x_031 <dbl>, x_032 <dbl>,
    #> #   x_033 <dbl>, x_034 <dbl>, x_035 <dbl>, x_036 <dbl>, x_037 <dbl>,
    #> #   x_038 <dbl>, x_039 <dbl>, x_040 <dbl>, x_041 <dbl>, x_042 <dbl>, …
…
Consistent `augment()` for workflows and parsnip models[](#consistent-augment-for-workflows-and-parsnip-models)

----------------------------------------------------------------------------------------------------------------

If you are interested in exploring predictions in relation to predictors, [`augment()`](https://generics.r-lib.org/reference/augment.html)
 is your extended [`predict()`](https://rdrr.io/r/stats/predict.html)
 method: it will augment the inputted dataset with its predictions. For classification, it will add hard class predictions as well as class probabilities. For regression, it will add the numeric prediction. If the outcome variable is part of the dataset, it also calculates residuals. This has already been the case for fitted parsnip models, and the [`augment()`](https://generics.r-lib.org/reference/augment.html)
 method for workflows will now also calculate residuals.

    spec_fit <- fit(linear_reg(), mpg ~ ., mtcars)
    wflow_fit <- workflow(mpg ~ ., linear_reg()) %>% fit(mtcars)
    
    augment(spec_fit, mtcars)
    #> # A tibble: 32 × 13
    #>    .pred  .resid   mpg   cyl  disp    hp  drat    wt  qsec    vs    am  gear
    #>    <dbl>   <dbl> <dbl> <dbl> <dbl> <dbl> <dbl> <dbl> <dbl> <dbl> <dbl> <dbl>
    #>  1  22.6 -1.60    21       6  160    110  3.9   2.62  16.5     0     1     4
    #>  2  22.1 -1.11    21       6  160    110  3.9   2.88  17.0     0     1     4
    #>  3  26.3 -3.45    22.8     4  108     93  3.85  2.32  18.6     1     1     4
    #>  4  21.2  0.163   21.4     6  258    110  3.08  3.22  19.4     1     0     3
    #>  5  17.7  1.01    18.7     8  360    175  3.15  3.44  17.0     0     0     3
    #>  6  20.4 -2.28    18.1     6  225    105  2.76  3.46  20.2     1     0     3
    #>  7  14.4 -0.0863  14.3     8  360    245  3.21  3.57  15.8     0     0     3
    #>  8  22.5  1.90    24.4     4  147.    62  3.69  3.19  20       1     0     4
    #>  9  24.4 -1.62    22.8     4  141.    95  3.92  3.15  22.9     1     0     4
    #> 10  18.7  0.501   19.2     6  168.   123  3.92  3.44  18.3     1     0     4
    #> # ℹ 22 more rows
    #> # ℹ 1 more variable: carb <dbl>
    
    augment(wflow_fit, mtcars)
    #> # A tibble: 32 × 13
    #>    .pred  .resid   mpg   cyl  disp    hp  drat    wt  qsec    vs    am  gear
    #>  * <dbl>   <dbl> <dbl> <dbl> <dbl> <dbl> <dbl> <dbl> <dbl> <dbl> <dbl> <dbl>
    #>  1  22.6 -1.60    21       6  160    110  3.9   2.62  16.5     0     1     4
    #>  2  22.1 -1.11    21       6  160    110  3.9   2.88  17.0     0     1     4
    #>  3  26.3 -3.45    22.8     4  108     93  3.85  2.32  18.6     1     1     4
    #>  4  21.2  0.163   21.4     6  258    110  3.08  3.22  19.4     1     0     3
    #>  5  17.7  1.01    18.7     8  360    175  3.15  3.44  17.0     0     0     3
    #>  6  20.4 -2.28    18.1     6  225    105  2.76  3.46  20.2     1     0     3
    #>  7  14.4 -0.0863  14.3     8  360    245  3.21  3.57  15.8     0     0     3
    #>  8  22.5  1.90    24.4     4  147.    62  3.69  3.19  20       1     0     4
    #>  9  24.4 -1.62    22.8     4  141.    95  3.92  3.15  22.9     1     0     4
    #> 10  18.7  0.501   19.2     6  168.   123  3.92  3.44  18.3     1     0     4
    #> # ℹ 22 more rows
    #> # ℹ 1 more variable: carb <dbl>
…
    set.seed(2024)
    
    xgb_res <- 
      tune_grid(
        boost_tree(mode = "regression", mtry = tune(), learn_rate = tune()),
        mpg ~ .,
        bootstraps(mtcars),
        control = control_grid(save_pred = TRUE)
      )

Note that we’ve used the [control option](https://tune.tidymodels.org/reference/control_grid.html)
 `save_pred = TRUE` to indicate that we want to save the predictions from our resampled models in the tuning results. Both `int_pctl()` and `compute_metrics()` below will need those predictions. The metrics for our resampled model look like so:

    collect_metrics(xgb_res)
    #> # A tibble: 20 × 8
    #>    mtry learn_rate .metric .estimator   mean     n std_err .config              
    #>   <int>      <dbl> <chr>   <chr>       <dbl> <int>   <dbl> <chr>                
    #> 1     2    0.00204 rmse    standard   19.7      25  0.262  Preprocessor1_Model01
    #> 2     2    0.00204 rsq     standard    0.659    25  0.0314 Preprocessor1_Model01
    #> 3     6    0.00859 rmse    standard   18.0      25  0.260  Preprocessor1_Model02
    #> 4     6    0.00859 rsq     standard    0.607    25  0.0270 Preprocessor1_Model02
    #> 5     3    0.0276  rmse    standard   14.0      25  0.267  Preprocessor1_Model03
    #> 6     3    0.0276  rsq     standard    0.710    25  0.0237 Preprocessor1_Model03
    #> # ℹ 14 more rows
…
In an upcoming release of the package, you’ll see a deprecation warning when a foreach parallel backend is registered but no future plan has been specified, so start transitioning your code sooner than later!

Percentile confidence intervals[](#percentile-confidence-intervals)

--------------------------------------------------------------------

Following up on changes in the [most recent rsample release](https://github.com/tidymodels/rsample/releases/tag/v1.2.0)
, tune has introduced a [method for `int_pctl()`](https://tune.tidymodels.org/reference/int_pctl.tune_results.html)
 that calculates percentile confidence intervals for performance metrics. To calculate a 90% confidence interval for the values of each performance metric returned in `collect_metrics()`, we’d write:

    set.seed(2024)
    
    int_pctl(xgb_res, alpha = .1)
    #> # A tibble: 20 × 8
    #>   .metric .estimator .lower .estimate .upper .config             mtry learn_rate
    #>   <chr>   <chr>       <dbl>     <dbl>  <dbl> <chr>              <int>      <dbl>
    #> 1 rmse    bootstrap  18.1      19.9   22.0   Preprocessor1_Mod…     2    0.00204
    #> 2 rsq     bootstrap   0.570     0.679  0.778 Preprocessor1_Mod…     2    0.00204
    #> 3 rmse    bootstrap  16.6      18.3   19.9   Preprocessor1_Mod…     6    0.00859
    #> 4 rsq     bootstrap   0.548     0.665  0.765 Preprocessor1_Mod…     6    0.00859
    #> 5 rmse    bootstrap  12.5      14.1   15.9   Preprocessor1_Mod…     3    0.0276 
    #> 6 rsq     bootstrap   0.622     0.720  0.818 Preprocessor1_Mod…     3    0.0276 
    #> # ℹ 14 more rows
…
Breaking change: relocation of ellipses[](#breaking-change-relocation-of-ellipses)

-----------------------------------------------------------------------------------

We’ve made a **breaking change** in argument order for several functions in the package (and downstream packages like finetune and workflowsets). Ellipses (…) are now used consistently in the package to require optional arguments to be named. For functions that previously had unused ellipses at the end of the function signature, they have been moved to follow the last argument without a default value, and several other functions that previously did not have ellipses in their signatures gained them. This applies to methods for `augment()`, `collect_predictions()`, `collect_metrics()`, `select_best()`, `show_best()`, and `conf_mat_resampled()`.

Compute new metrics without re-fitting[](#compute-new-metrics-without-re-fitting)

----------------------------------------------------------------------------------

We’ve also added a new function, [`compute_metrics()`](https://tune.tidymodels.org/reference/compute_metrics.html)
, that allows for calculating metrics that were not used when evaluating against resamples. For example, consider our `xgb_res` object. Since we didn’t supply any metrics to evaluate, and this model is a regression model, tidymodels selected RMSE and R2 as defaults:

    collect_metrics(xgb_res)
    #> # A tibble: 20 × 8
    #>    mtry learn_rate .metric .estimator   mean     n std_err .config              
    #>   <int>      <dbl> <chr>   <chr>       <dbl> <int>   <dbl> <chr>                
    #> 1     2    0.00204 rmse    standard   19.7      25  0.262  Preprocessor1_Model01
    #> 2     2    0.00204 rsq     standard    0.659    25  0.0314 Preprocessor1_Model01
    #> 3     6    0.00859 rmse    standard   18.0      25  0.260  Preprocessor1_Model02
    #> 4     6    0.00859 rsq     standard    0.607    25  0.0270 Preprocessor1_Model02
    #> 5     3    0.0276  rmse    standard   14.0      25  0.267  Preprocessor1_Model03
    #> 6     3    0.0276  rsq     standard    0.710    25  0.0237 Preprocessor1_Model03
    #> # ℹ 14 more rows
    

In the past, if you wanted to evaluate that workflow against a performance metric that you hadn’t included in your `tune_grid()` run, you’d need to re-run `tune_grid()`, fitting models and predicting new values all over again. Now, using the `compute_metrics()` function, you can use the `tune_grid()` output you’ve already generated and compute any number of new metrics without having to fit any more models as long as you use the control option `save_pred = TRUE` when tuning.

So, say I want to additionally calculate Huber Loss and Mean Absolute Percent Error. I just pass those metrics along with the tuning result to `compute_metrics()`, and the result looks just like `collect_metrics()` output for the metrics originally calculated:

    compute_metrics(xgb_res, metric_set(huber_loss, mape))
    #> # A tibble: 20 × 8
    #>    mtry learn_rate .metric    .estimator  mean     n std_err .config            
    #>   <int>      <dbl> <chr>      <chr>      <dbl> <int>   <dbl> <chr>              
    #> 1     2    0.00204 huber_loss standard    18.3    25  0.232  Preprocessor1_Mode…
    #> 2     2    0.00204 mape       standard    94.4    25  0.0685 Preprocessor1_Mode…
    #> 3     6    0.00859 huber_loss standard    16.7    25  0.229  Preprocessor1_Mode…
    #> 4     6    0.00859 mape       standard    85.7    25  0.178  Preprocessor1_Mode…
    #> 5     3    0.0276  huber_loss standard    12.6    25  0.230  Preprocessor1_Mode…
    #> 6     3    0.0276  mape       standard    64.4    25  0.435  Preprocessor1_Mode…
    #> # ℹ 14 more rows
    

Easily pivot resampled metrics[](#easily-pivot-resampled-metrics)

------------------------------------------------------------------

Finally, the `collect_metrics()` method for tune results recently [gained a new argument](https://tune.tidymodels.org/reference/collect_predictions.html#arguments)
, `type`, indicating the shape of the returned metrics. The default, `type = "long"`, is the same shape as before. The argument value `type = "wide"` will allot each metric its own column, making it easier to compare metrics across different models.

    collect_metrics(xgb_res, type = "wide")
    #> # A tibble: 10 × 5
    #>    mtry learn_rate .config                rmse   rsq
    #>   <int>      <dbl> <chr>                 <dbl> <dbl>
    #> 1     2    0.00204 Preprocessor1_Model01  19.7 0.659
    #> 2     6    0.00859 Preprocessor1_Model02  18.0 0.607
    #> 3     3    0.0276  Preprocessor1_Model03  14.0 0.710
    #> 4     2    0.0371  Preprocessor1_Model04  12.3 0.728
    #> 5     5    0.00539 Preprocessor1_Model05  18.8 0.595
    #> 6     9    0.0110  Preprocessor1_Model06  17.4 0.577
    #> # ℹ 4 more rows
…
### Writing a Parquet file[](#writing-a-parquet-file)

To show [`write_parquet()`](https://r-lib.github.io/nanoparquet/reference/write_parquet.html)
, we’ll use the `flights` data in the nycflights13 package:

    library(nycflights13)
    flights
    #> # A tibble: 336,776 × 19
    #>     year month   day dep_time sched_dep_time dep_delay arr_time sched_arr_time
    #>    <int> <int> <int>    <int>          <int>     <dbl>    <int>          <int>
    #>  1  2013     1     1      517            515         2      830            819
    #>  2  2013     1     1      533            529         4      850            830
    #>  3  2013     1     1      542            540         2      923            850
    #>  4  2013     1     1      544            545        -1     1004           1022
    #>  5  2013     1     1      554            600        -6      812            837
    #>  6  2013     1     1      554            558        -4      740            728
    #>  7  2013     1     1      555            600        -5      913            854
    #>  8  2013     1     1      557            600        -3      709            723
    #>  9  2013     1     1      557            600        -3      838            846
    #> 10  2013     1     1      558            600        -2      753            745
    #> # ℹ 336,766 more rows
    #> # ℹ 11 more variables: arr_delay <dbl>, carrier <chr>, flight <int>,
    #> #   tailnum <chr>, origin <chr>, dest <chr>, air_time <dbl>, distance <dbl>,
    #> #   hour <dbl>, minute <dbl>, time_hour <dttm>
…
