…
    # you can also leave out path = & sheet =
    # then the command becomes: read_excel("tomslee_airbnb_belgium_1454_2017-07-14.xlsx", "Sheet1")

`read_excel` is a function from the `readxl` package. It takes two arguments: the first one is the filename and the second argument is the name of the Excel sheet that you want to read.

### 2.1.5 Inspecting the Airbnb dataset

Our dataset contains information on rooms in Belgium listed on airbnb.com. We know for each room (identified by `room_id`): who the host is (`host_id`), what type of room it is (`room_type`), where it is located (`country`, `city`, `neighborhood`, and even the exact `latitude` and `longitude`), how many reviews it has received (`reviews`), how satisfied people were (`overall_satisfaction`), price (`price`), and room characteristics (`accommodates`, `bedrooms`, `bathrooms`, `minstay`).

A really important step is to check that your data were imported correctly. It’s good practice to always inspect your data — do you see any missing values, do the numbers and names make sense? If you start right away with the analysis, you run the risk of having to re-do your analysis because the data weren’t read correctly, or worse, analysing wrong data without noticing.

    airbnb # Print the content of the object airbnb.

    ## # A tibble: 17,651 x 20
    ##    room_id survey_id host_id room_type country city  borough neighborhood
    ##      <dbl>     <dbl>   <dbl> <chr>     <lgl>   <chr> <chr>   <chr>       
    ##  1  5.14e6      1454  2.07e7 Shared r~ NA      Belg~ Gent    Gent        
    ##  2  1.31e7      1454  4.61e7 Shared r~ NA      Belg~ Brussel Schaarbeek  
    ##  3  8.30e6      1454  3.09e7 Shared r~ NA      Belg~ Brussel Elsene      
    ##  4  1.38e7      1454  8.14e7 Shared r~ NA      Belg~ Oosten~ Middelkerke 
    ##  5  1.83e7      1454  1.43e7 Shared r~ NA      Belg~ Brussel Anderlecht  
    ##  6  1.27e7      1454  6.88e7 Shared r~ NA      Belg~ Brussel Koekelberg  
    ##  7  1.55e7      1454  9.91e7 Shared r~ NA      Belg~ Gent    Gent        
    ##  8  3.91e6      1454  3.69e6 Shared r~ NA      Belg~ Brussel Elsene      
    ##  9  1.49e7      1454  3.06e7 Shared r~ NA      Belg~ Vervie~ Baelen      
    ## 10  8.50e6      1454  4.05e7 Shared r~ NA      Belg~ Brussel Etterbeek   
    ## # ... with 17,641 more rows, and 12 more variables: reviews <dbl>,
    ## #   overall_satisfaction <dbl>, accommodates <dbl>, bedrooms <dbl>,
    ## #   bathrooms <lgl>, price <dbl>, minstay <lgl>, name <chr>,
    ## #   last_modified <chr>, latitude <dbl>, longitude <dbl>, location <chr>
…
===============================

2.2 Manipulating data frames
----------------------------

### 2.2.1 Transforming variables

#### 2.2.1.1 Factorizing

Let’s inspect our dataset again:

    airbnb

    ## # A tibble: 17,651 x 20
    ##    room_id survey_id host_id room_type country city  borough neighborhood
    ##      <dbl>     <dbl>   <dbl> <chr>     <lgl>   <chr> <chr>   <chr>       
    ##  1  5.14e6      1454  2.07e7 Shared r~ NA      Belg~ Gent    Gent        
    ##  2  1.31e7      1454  4.61e7 Shared r~ NA      Belg~ Brussel Schaarbeek  
    ##  3  8.30e6      1454  3.09e7 Shared r~ NA      Belg~ Brussel Elsene      
    ##  4  1.38e7      1454  8.14e7 Shared r~ NA      Belg~ Oosten~ Middelkerke 
    ##  5  1.83e7      1454  1.43e7 Shared r~ NA      Belg~ Brussel Anderlecht  
    ##  6  1.27e7      1454  6.88e7 Shared r~ NA      Belg~ Brussel Koekelberg  
    ##  7  1.55e7      1454  9.91e7 Shared r~ NA      Belg~ Gent    Gent        
    ##  8  3.91e6      1454  3.69e6 Shared r~ NA      Belg~ Brussel Elsene      
    ##  9  1.49e7      1454  3.06e7 Shared r~ NA      Belg~ Vervie~ Baelen      
    ## 10  8.50e6      1454  4.05e7 Shared r~ NA      Belg~ Brussel Etterbeek   
    ## # ... with 17,641 more rows, and 12 more variables: reviews <dbl>,
    ## #   overall_satisfaction <dbl>, accommodates <dbl>, bedrooms <dbl>,
    ## #   bathrooms <lgl>, price <dbl>, minstay <lgl>, name <chr>,
    ## #   last_modified <chr>, latitude <dbl>, longitude <dbl>, location <chr>
…
Character variables are different from factor variables in that they are not just labels for categories. An example of a character variable would be a variable that stores survey respondents’ answers to an open question. Here, the actual content is important (we do care whether someone describes their stay at an Airbnb as `very good` or `excellent` or something else).

In the `airbnb` dataset, the `room_id`’s are not strictly determined beforehand, but they definitely are labels and should not be treated as numbers, so we tell R to convert them to factors. Let’s have a look at the `airbnb` dataset again to check whether the type of these variables has changed after factorizing:

    airbnb

    ## # A tibble: 17,651 x 22
    ##    room_id survey_id host_id room_type country city  borough neighborhood
    ##      <dbl>     <dbl>   <dbl> <chr>     <lgl>   <chr> <chr>   <chr>       
    ##  1  5.14e6      1454  2.07e7 Shared r~ NA      Belg~ Gent    Gent        
    ##  2  1.31e7      1454  4.61e7 Shared r~ NA      Belg~ Brussel Schaarbeek  
    ##  3  8.30e6      1454  3.09e7 Shared r~ NA      Belg~ Brussel Elsene      
    ##  4  1.38e7      1454  8.14e7 Shared r~ NA      Belg~ Oosten~ Middelkerke 
    ##  5  1.83e7      1454  1.43e7 Shared r~ NA      Belg~ Brussel Anderlecht  
    ##  6  1.27e7      1454  6.88e7 Shared r~ NA      Belg~ Brussel Koekelberg  
    ##  7  1.55e7      1454  9.91e7 Shared r~ NA      Belg~ Gent    Gent        
    ##  8  3.91e6      1454  3.69e6 Shared r~ NA      Belg~ Brussel Elsene      
    ##  9  1.49e7      1454  3.06e7 Shared r~ NA      Belg~ Vervie~ Baelen      
    ## 10  8.50e6      1454  4.05e7 Shared r~ NA      Belg~ Brussel Etterbeek   
    ## # ... with 17,641 more rows, and 14 more variables: reviews <dbl>,
    ## #   overall_satisfaction <dbl>, accommodates <dbl>, bedrooms <dbl>,
    ## #   bathrooms <lgl>, price <dbl>, minstay <lgl>, name <chr>,
    ## #   last_modified <chr>, latitude <dbl>, longitude <dbl>, location <chr>,
    ## #   room_id_F <fct>, host_id_F <fct>
…
    # We leave out the transformation of overall satisfaction
    # and we leave out the filter command to make sure we do not retain only the data of the ten most populated cities

### 2.4.1 Frequency tables

Each observation in our dataset is a room, so we know that our data contains information on 17651 rooms. Say we want to know how many rooms there are per city:

    airbnb %>% 
      group_by(city) %>% # Use the group_by function to group the airbnb data frame (provided by the pipe on the previous line) by city
      summarise(nr_per_city = n()) # Summarize this grouped object (provided by the pipe on the previous line): ask R to create a new variable nr_per_city that has the number of observations in each group (city)

    ## `summarise()` ungrouping output (override with `.groups` argument)

    ## # A tibble: 43 x 2
    ##    city        nr_per_city
    ##    <chr>             <int>
    ##  1 Aalst                74
    ##  2 Antwerpen          1610
    ##  3 Arlon                46
    ##  4 Ath                  47
    ##  5 Bastogne            145
    ##  6 Brugge             1094
    ##  7 Brussel            6715
    ##  8 Charleroi           118
    ##  9 Dendermonde          45
    ## 10 Diksmuide            27
    ## # ... with 33 more rows

We tell R to take the `airbnb` object, to group it by `city`, and to `summarise` it. The summary we want is the number of observations per group. In this case the cities form the groups. The groups will always be the first column in our output. We obtain the number of observations per group with the `n()` function. These numbers are stored in a new column that we name `nr_per_city`.

As you can see, these frequencies are sorted alphabetically by city. We can sort them on the number of rooms per city instead:

    airbnb %>% 
      group_by(city) %>%
      summarise(nr_per_city = n()) %>%
      arrange(nr_per_city) # Use the arrange function to sort on a column of choice

    ## `summarise()` ungrouping output (override with `.groups` argument)

    ## # A tibble: 43 x 2
    ##    city         nr_per_city
    ##    <chr>              <int>
    ##  1 Tielt                 24
    ##  2 Diksmuide             27
    ##  3 Moeskroen             28
    ##  4 Roeselare             41
    ##  5 Eeklo                 43
    ##  6 Dendermonde           45
    ##  7 Arlon                 46
    ##  8 Ath                   47
    ##  9 Waremme               51
    ## 10 Sint-Niklaas          52
    ## # ... with 33 more rows

It shows the city with the fewest rooms on top. To display the city with the most rooms on top, sort in descending order:

    airbnb %>% 
      group_by(city) %>%
      summarise(nr_per_city = n()) %>%
      arrange(desc(nr_per_city)) # Sort in descending order

    ## `summarise()` ungrouping output (override with `.groups` argument)

    ## # A tibble: 43 x 2
    ##    city            nr_per_city
    ##    <chr>                 <int>
    ##  1 Brussel                6715
    ##  2 Antwerpen              1610
    ##  3 Gent                   1206
    ##  4 Brugge                 1094
    ##  5 Liege                   667
    ##  6 Verviers                631
    ##  7 Oostende                527
    ##  8 Nivelles                505
    ##  9 Halle-Vilvoorde         471
    ## 10 Leuven                  434
    ## # ... with 33 more rows

You’ll see that the capital Brussels has the most rooms on offer, followed by Antwerpen and Gent. Notice that this is a lot like working with PivotTable in Excel. You could have done all this in Excel, but that has several disadvantages, especially when working with large datasets like ours: you have no record of what you clicked on, how you sorted the data, and what you may have copied or deleted. In Excel, it’s easier to make accidental mistakes without noticing than in R. In R, you have your script, so you can go back and check all the steps in your analysis.

Note: you could have also done this without the pipe operator:

    airbnb.grouped <- group_by(airbnb, city)
    airbnb.grouped.summary <- summarize(airbnb.grouped, nr_per_city = n())

    ## `summarise()` ungrouping output (override with `.groups` argument)

    arrange(airbnb.grouped.summary, desc(nr_per_city))

    ## # A tibble: 43 x 2
    ##    city            nr_per_city
    ##    <chr>                 <int>
    ##  1 Brussel                6715
    ##  2 Antwerpen              1610
    ##  3 Gent                   1206
    ##  4 Brugge                 1094
    ##  5 Liege                   667
    ##  6 Verviers                631
    ##  7 Oostende                527
    ##  8 Nivelles                505
    ##  9 Halle-Vilvoorde         471
    ## 10 Leuven                  434
    ## # ... with 33 more rows
…
Perhaps surprisingly, the top three most expensive cities are Bastogne, Philippeville, and Verviers. Perhaps the average price for these cities is high because of outliers. Let’s calculate some more descriptive statistics to see whether our hunch is correct:

    airbnb %>%
      group_by(city) %>%
      summarise(nr_per_city = n(), 
                average_price = mean(price),
                median_price = median(price), # calculate the median price per group (city)
                max_price = max(price)) %>% # calculate the maximum price per group (city)
      arrange(desc(median_price),
              desc(max_price)) # sort, in descending order, on median price and then on maximum price

    ## `summarise()` ungrouping output (override with `.groups` argument)

    ## # A tibble: 43 x 5
    ##    city              nr_per_city average_price median_price max_price
    ##    <chr>                   <int>         <dbl>        <dbl>     <dbl>
    ##  1 Tielt                      24          129.          112       318
    ##  2 Ieper                     143          151.          111       695
    ##  3 Verviers                  631          159.          105      1769
    ##  4 Brugge                   1094          126.          105      1414
    ##  5 Bastogne                  145          181.          100      1650
    ##  6 Veurne                    350          119.          100       943
    ##  7 Marche-en-Famenne         266          124.          100       472
    ##  8 Dinant                    286          144.           95      1284
    ##  9 Tongeren                  173          127.           95       990
    ## 10 Neufchâteau               160          141.           95       872
    ## # ... with 33 more rows
…
    head(airbnb$overall_satisfaction)

    ## [1] 4.5  NA 4.0 4.5 5.0 5.0

### 3.1.3 Merging datasets

Later on, we’ll test whether price is related to certain characteristics of the room types. Potentially interesting characteristics are: `room_type`, `city`, `reviews`, `overall_satisfaction`, etc. To make it even more interesting, we can augment the data, for example with publicly available data on the cities. I’ve collected the population sizes of the most populous Belgian cities from [this website](https://population.mongabay.com/population/belgium/)
. Download these data [here](https://feb.kuleuven.be/lien.lamey/public/rmodule/population.xlsx)
 and import them into R:

    population <- read_excel("population.xlsx","data")

    population

    ## # A tibble: 183 x 2
    ##    place     population
    ##    <chr>          <dbl>
    ##  1 Brussels     1019022
    ##  2 Antwerpen     459805
    ##  3 Gent          231493
    ##  4 Charleroi     200132
    ##  5 Liège         182597
    ##  6 Brugge        116709
    ##  7 Namur         106284
    ##  8 Leuven         92892
    ##  9 Mons           91277
    ## 10 Aalst          77534
    ## # ... with 173 more rows

Now, we want to link these data to our `airbnb` data frame. This is very easy in R (but a huge pain in, for example, Excel):

    airbnb.merged <- left_join(airbnb, population, by = c("city" = "place"))
    # the first argument is the dataset that we want to augment
    # the second argument is where we find the data to augment the first dataset with
    # the third argument is the variables that we use to link one dataset with the other (city is a variable in airbnb, place is a variable in population)

Check out the most relevant columns of the `airbnb.merged` data frame:

    airbnb.merged %>% select(room_id, city, price, population)

    ## # A tibble: 17,651 x 4
    ##    room_id  city     price population
    ##    <fct>    <chr>    <dbl>      <dbl>
    ##  1 5141135  Gent        59     231493
    ##  2 13128333 Brussel     53         NA
    ##  3 8298885  Brussel     46         NA
    ##  4 13822088 Oostende    56         NA
    ##  5 18324301 Brussel     47         NA
    ##  6 12664969 Brussel     60         NA
    ##  7 15452889 Gent        41     231493
    ##  8 3911778  Brussel     36         NA
    ##  9 14929414 Verviers    18      52824
    ## 10 8497852  Brussel     38         NA
    ## # ... with 17,641 more rows

We see that there is a column `population` in our `airbnb.merged` dataset. You can also see this in the **Environment** pane: `airbnb.merged` has one variable more than `airbnb` (but the same number of observations).

Data for Brussels are missing, however. This is because Brussels is spelled in Dutch in the `airbnb` dataset but in English in the `population` dataset. Let’s replace Brussels with Brussel in the `population` dataset (and also change the spelling of two other cities) and link the data again:

    population <- population %>% 
      mutate(place = replace(place, place == "Brussels", "Brussel"),
             place = replace(place, place == "Ostend", "Oostende"),
             place = replace(place, place == "Mouscron", "Moeskroen"))
    
    airbnb.merged <- left_join(airbnb, population, by = c("city" = "place"))
    
    airbnb.merged %>% select(room_id, city, price, population)

    ## # A tibble: 17,651 x 4
    ##    room_id  city     price population
    ##    <fct>    <chr>    <dbl>      <dbl>
    ##  1 5141135  Gent        59     231493
    ##  2 13128333 Brussel     53    1019022
    ##  3 8298885  Brussel     46    1019022
    ##  4 13822088 Oostende    56      69011
    ##  5 18324301 Brussel     47    1019022
    ##  6 12664969 Brussel     60    1019022
    ##  7 15452889 Gent        41     231493
    ##  8 3911778  Brussel     36    1019022
    ##  9 14929414 Verviers    18      52824
    ## 10 8497852  Brussel     38    1019022
    ## # ... with 17,641 more rows
…
    library(tidyverse)
    library(readxl) # we need this package because our data is stored in an Excel file
    setwd("c:/dropbox/work/teaching/R/") # change to your own working directory
    
    powercc <- read_excel("power_conspicuous_consumption.xlsx","data") # Import the Excel file. Note that the name of the Excel sheet is data

Don’t forget to save your script in the working directory.

### 4.1.2 Manipulate

    powercc # Inspect the data

    ## # A tibble: 147 x 39
    ##    subject start_date          end_date            duration finished power
    ##      <dbl> <dttm>              <dttm>                 <dbl>    <dbl> <chr>
    ##  1       1 2012-04-19 09:32:56 2012-04-19 09:49:42    1006.        1 high 
    ##  2       2 2012-04-19 09:31:26 2012-04-19 09:51:13    1187.        1 low  
    ##  3       3 2012-04-19 09:29:50 2012-04-19 09:53:10    1400.        1 low  
    ##  4       4 2012-04-19 09:26:25 2012-04-19 09:53:21    1616.        1 low  
    ##  5       5 2012-04-19 09:20:55 2012-04-19 09:54:21    2006.        1 high 
    ##  6       6 2012-04-19 09:28:02 2012-04-19 09:55:50    1668.        1 high 
    ##  7       7 2012-04-19 09:17:54 2012-04-19 09:58:49    2455.        1 low  
    ##  8       8 2012-04-19 09:22:26 2012-04-19 10:01:40    2354.        1 high 
    ##  9       9 2012-04-19 10:13:12 2012-04-19 10:31:03    1071.        1 low  
    ## 10      10 2012-04-19 10:12:55 2012-04-19 10:31:29    1114.        1 high 
    ## # ... with 137 more rows, and 33 more variables: audience <chr>,
    ## #   group_size <dbl>, gender <chr>, age <dbl>, dominance1 <dbl>,
    ## #   dominance2 <dbl>, dominance3 <dbl>, dominance4 <dbl>, dominance5 <dbl>,
    ## #   dominance6 <dbl>, dominance7 <dbl>, sa1 <dbl>, sa2 <dbl>, sa3 <dbl>,
    ## #   sa4 <dbl>, sa5 <dbl>, sa6 <dbl>, sa7 <dbl>, sa8 <dbl>, sa9 <dbl>,
    ## #   sa10 <dbl>, sa11 <dbl>, inconspicuous1 <dbl>, inconspicuous2 <dbl>,
    ## #   inconspicuous3 <dbl>, inconspicuous4 <dbl>, inconspicuous5 <dbl>,
    ## #   conspicuous1 <dbl>, conspicuous2 <dbl>, conspicuous3 <dbl>,
    ## #   conspicuous4 <dbl>, conspicuous5 <dbl>, agree <dbl>
…
